[
  {
    "date": "2012-09-06",
    "description": "CHECK DEPOSIT",
    "deposit": "186.7",
    "withdrawal": ""
  },
  {
    "date": "2012-09-05",
    "description": "TELECOM",
    "deposit": "100",
    "withdrawal": "99.6"
  },
  {
    "date": "2012-09-01",
    "description": "CAR PAYMENT",
    "deposit": "",
    "withdrawal": "1548"
  }
]
